{
    "variables":
    {
      "cpu": "2",
      "ram": "2048",
      "name": "redhat",
      "disk_size": "11264M",
      "version": "8.3",
      "iso_checksum_type": "sha256",
      "iso_urls": "isos/rhel-8.3-x86_64-dvd.iso", 
      "iso_checksum": "30fd8dff2d29a384bd97886fa826fa5be872213c81e853eae3f9d9674f720ad0",
      "headless": "true",
      "config_file": "rhel-8.3-x86_64.cfg",
      "communicator": "none",
      "disable_imgpush": "false" 
    },
  "builders": [
    {
      "name": "{{user `name`}}-{{user `version`}}",
      "type": "qemu",
      "format": "qcow2",
      "accelerator": "kvm",
      "qemu_binary": "/usr/local/bin/qemu-system-x86_64",
      "net_device": "virtio-net",
      "disk_interface": "virtio",
      "disk_cache": "none",
      "qemuargs": [[ "-m", "{{user `ram`}}M" ],[ "-smp", "{{user `cpu`}}" ]],
      "communicator": "{{user `communicator`}}",
      "shutdown_timeout": "30m",
      "http_directory": ".",
      "iso_urls": "{{user `iso_urls`}}",
      "iso_checksum": "{{user `iso_checksum`}}",
      "boot_wait": "40s",
      "boot_command": [
        "<up><wait><tab><wait> net.ifnames=0 biosdevname=0 text ks=http://{{ .HTTPIP }}:{{ .HTTPPort }}/http/{{user `config_file`}}<enter><wait>"
      ],
      "disk_size": "{{user `disk_size`}}",
      "disk_discard": "unmap",
      "disk_compression": true,
      "headless": "{{user `headless`}}",
      "output_directory": "artifacts/qemu/{{user `name`}}-{{user `version`}}"
    }
  ],
  "post-processors": [
    {
        "type": "shell-local",
        "script": "scripts/push-image.sh",
        "environment_vars": ["IMAGE_NAME={{user `name`}}",
                             "IMAGE_VERSION={{user `version`}}",
	                     "DISABLE_PUSH={{user `disable_imgpush`}}"]
    }
  ]
}
